EpiStats
…
  # Return the modified data frame
  return(codedTable)
}

Importing the labels that will accompany the data:

ageLabels <- dstdp_table_conn(table='LookupAge',schema='dashboard')
sexLabels <- dstdp_table_conn(table='LookupSex',schema='dashboard')
eventLabels <- dstdp_table_conn(table='LookupEvent',schema='dashboard')
raceLabels <- dstdp_table_conn(table='LookupRaceLegacy',schema='dashboard')
racehybridLabels <- dstdp_table_conn(table='LookupRaceHybrid',schema='dashboard')
jurisdictions <- dstdp_table_conn(table='Jurisdictions',schema='lkp')
print(jurisdictions)

## # A tibble: 68 × 20
##    NAME              ABBR  TYPE          FIPS FIPSc PROJAREA CITYFIPS CS_MESSAGE
##    <chr>             <chr> <chr>        <int> <chr> <chr>    <chr>    <chr>     
##  1 Alabama           AL    State            1 01    <NA>     <NA>     HL7       
##  2 Alaska            AK    State            2 02    <NA>     <NA>     HL7       
##  3 Arizona           AZ    State            4 04    <NA>     <NA>     NETSS     
##  4 Arkansas          AR    State            5 05    <NA>     <NA>     NETSS     
##  5 California        CA    State            6 06    69999    <NA>     NETSS     
##  6 Los Angeles, CA   LOS   Project Area     6 06    61980    <NA>     NETSS     
##  7 San Francisco, CA SF    Project Area     6 06    63290    <NA>     NETSS     
##  8 Colorado          CO    State            8 08    <NA>     <NA>     NETSS     
##  9 Connecticut       CT    State            9 09    <NA>     <NA>     HL7       
## 10 Delaware          DE    State           10 10    <NA>     <NA>     NETSS     
## # ℹ 58 more rows
## # ℹ 12 more variables: CS_DROP_HARDCOPY_YEAR <int>, STD_MESSAGE <chr>,
## #   STD_DROP_HARDCOPY_YEAR <int>, SYSTEM <chr>, COMMENTS <chr>,
## #   STD_MMG_Version <chr>, CS_MMG_Version <chr>, NETSS_CS_Version <chr>,
## #   NETSS_STD_Version <chr>, HL7_STD_YEAR <int>, HL7_CS_YEAR <int>,
## #   REDCap_Group_ID <int>
…
print(dsr_test)

## # A tibble: 54 × 11
## # Groups:   race, year, eventName [54]
##    race   year eventName total_count total_pop value lowercl uppercl confidence
##    <chr> <dbl> <chr>           <dbl>     <dbl> <dbl>   <dbl>   <dbl> <chr>     
##  1 Black  2012 Chlamydia       63467  17007777  358.    355.    360. 95%       
##  2 Black  2012 Gonorrhea       32633  17007777  186.    184.    188. 95%       
##  3 Black  2013 Chlamydia       61125  17118456  341.    338.    344. 95%       
##  4 Black  2013 Gonorrhea       31165  17118456  176.    174.    178. 95%       
##  5 Black  2014 Chlamydia       58810  17301508  322.    320.    325. 95%       
##  6 Black  2014 Gonorrhea       30414  17301508  168.    166.    170. 95%       
##  7 Black  2015 Chlamydia       53009  17431221  289.    286.    291. 95%       
##  8 Black  2015 Gonorrhea       27155  17431221  149.    148.    151. 95%       
##  9 Black  2016 Chlamydia       50490  17493167  275.    272.    277. 95%       
## 10 Black  2016 Gonorrhea       27737  17493167  152.    150.    154. 95%       
## # ℹ 44 more rows
## # ℹ 2 more variables: statistic <chr>, method <chr>
…
